1,employee0,employee0
2,employee1,employee1
3,employee2,employee2
4,employee3,employee3
5,employee4,employee4
6,employee5,employee5
7,employee6,employee6
8,employee7,employee7
9,employee8,employee8
10,employee9,employee9
11,manager0,manager0
12,employee10,employee10
13,employee11,employee11
14,employee12,employee12
15,employee13,employee13
16,employee14,employee14
17,employee15,employee15
18,employee16,employee16
19,employee17,employee17
20,employee18,employee18
21,employee19,employee19
22,manager1,manager1
23,employee20,employee20
24,employee21,employee21
25,employee22,employee22
26,employee23,employee23
27,employee24,employee24
28,employee25,employee25
29,employee26,employee26
30,employee27,employee27
31,employee28,employee28
32,employee29,employee29
33,manager2,manager2
34,employee30,employee30
35,employee31,employee31
36,employee32,employee32
37,employee33,employee33
38,employee34,employee34
39,employee35,employee35
40,employee36,employee36
41,employee37,employee37
42,employee38,employee38
43,employee39,employee39
44,manager3,manager3
45,employee40,employee40
46,employee41,employee41
47,employee42,employee42
48,employee43,employee43
49,employee44,employee44
50,employee45,employee45
51,employee46,employee46
52,employee47,employee47
53,employee48,employee48
54,employee49,employee49
55,manager4,manager4
56,employee50,employee50
57,employee51,employee51
58,employee52,employee52
59,employee53,employee53
60,employee54,employee54
61,employee55,employee55
62,employee56,employee56
63,employee57,employee57
64,employee58,employee58
65,employee59,employee59
66,manager5,manager5
67,employee60,employee60
68,employee61,employee61
69,employee62,employee62
70,employee63,employee63
71,employee64,employee64
72,employee65,employee65
73,employee66,employee66
74,employee67,employee67
75,employee68,employee68
76,employee69,employee69
77,manager6,manager6
78,employee70,employee70
79,employee71,employee71
80,employee72,employee72
81,employee73,employee73
82,employee74,employee74
83,employee75,employee75
84,employee76,employee76
85,employee77,employee77
86,employee78,employee78
87,employee79,employee79
88,manager7,manager7
89,employee80,employee80
90,employee81,employee81
91,employee82,employee82
92,employee83,employee83
93,employee84,employee84
94,employee85,employee85
95,employee86,employee86
96,employee87,employee87
97,employee88,employee88
98,employee89,employee89
99,manager8,manager8
100,employee90,employee90
101,employee91,employee91
102,employee92,employee92
103,employee93,employee93
104,employee94,employee94
105,employee95,employee95
106,employee96,employee96
107,employee97,employee97
108,employee98,employee98
109,employee99,employee99
110,manager9,manager9
